<?xml version="1.0" encoding="UTF-8" standalone="no"?>
<!-- Created with Inkscape (http://www.inkscape.org/) -->

<svg
   xmlns:dc="http://purl.org/dc/elements/1.1/"
   xmlns:cc="http://creativecommons.org/ns#"
   xmlns:rdf="http://www.w3.org/1999/02/22-rdf-syntax-ns#"
   xmlns:svg="http://www.w3.org/2000/svg"
   xmlns="http://www.w3.org/2000/svg"
   xmlns:sodipodi="http://sodipodi.sourceforge.net/DTD/sodipodi-0.dtd"
   xmlns:inkscape="http://www.inkscape.org/namespaces/inkscape"
   width="210mm"
   height="297mm"
   viewBox="0 0 210 297"
   version="1.1"
   id="svg8"
   inkscape:version="0.92.3 (2405546, 2018-03-11)"
   sodipodi:docname="shop-marker-blue.svg">
  <defs
     id="defs2" />
  <sodipodi:namedview
     id="base"
     pagecolor="#ffffff"
     bordercolor="#666666"
     borderopacity="1.0"
     inkscape:pageopacity="0.0"
     inkscape:pageshadow="2"
     inkscape:zoom="0.7"
     inkscape:cx="697.52032"
     inkscape:cy="715.1915"
     inkscape:document-units="mm"
     inkscape:current-layer="layer1-0"
     showgrid="false"
     inkscape:window-width="1920"
     inkscape:window-height="960"
     inkscape:window-x="0"
     inkscape:window-y="27"
     inkscape:window-maximized="1" />
  <metadata
     id="metadata5">
    <rdf:RDF>
      <cc:Work
         rdf:about="">
        <dc:format>image/svg+xml</dc:format>
        <dc:type
           rdf:resource="http://purl.org/dc/dcmitype/StillImage" />
        <dc:title></dc:title>
      </cc:Work>
    </rdf:RDF>
  </metadata>
  <g
     inkscape:label="Layer 1"
     inkscape:groupmode="layer"
     id="layer1">
    <g
       id="layer1-3"
       inkscape:label="Layer 1"
       transform="translate(283.30457,225.62549)">
      <g
         id="layer1-1"
         inkscape:label="Layer 1"
         transform="translate(-286.02761,-214.6226)"
         style="fill:#0095db;fill-opacity:1">
        <g
           id="layer1-0"
           inkscape:label="Layer 1"
           transform="translate(0.08632238,-12.081031)"
           style="fill-rule:evenodd">
          <path
             transform="scale(0.26458333)"
             inkscape:connector-curvature="0"
             id="path4287"
             d="m 227.73972,357.94509 v -100.3746 l 8.43844,-0.44291 c 7.17128,-0.37639 9.5364,-0.98671 15.75,-4.06431 4.02136,-1.99177 9.03941,-5.39669 11.15124,-7.5665 l 3.83968,-3.94509 4.45961,4.45961 c 2.45278,2.45278 7.47492,5.88808 11.16032,7.634 6.20355,2.93887 7.47976,3.1744 17.20071,3.1744 9.29907,0 11.154,-0.30653 16.21806,-2.68006 3.14494,-1.47403 7.94987,-4.76764 10.67762,-7.31914 l 4.95955,-4.63908 4.32239,4.22173 c 2.37731,2.32194 7.24738,5.61555 10.82238,7.31913 5.98889,2.85386 7.32563,3.09742 17,3.09742 9.67437,0 11.01111,-0.24356 17,-3.09742 3.575,-1.70358 8.44507,-4.99719 10.82238,-7.31913 l 4.32239,-4.22173 4.95955,4.63908 c 2.72775,2.5515 7.53268,5.84511 10.67761,7.31914 5.06407,2.37353 6.919,2.68006 16.21807,2.68006 9.67407,0 11.01588,-0.24446 17.05842,-3.10781 3.60713,-1.7093 8.5142,-4.9683 10.9046,-7.24224 l 4.34618,-4.13442 4.87733,4.56218 c 2.68254,2.50919 7.45047,5.7682 10.5954,7.24223 5.06407,2.37353 6.919,2.68006 16.21807,2.68006 9.6908,0 11.0093,-0.24132 17.1085,-3.13125 3.63468,-1.72219 8.69181,-5.12741 11.23808,-7.56716 l 4.62958,-4.43592 2.76192,2.8862 c 7.18319,7.50641 19.66946,12.74813 30.36726,12.74813 h 5.89466 v 100.5 100.5 h -96 -96 v -82.06574 c 0,-53.43444 -0.35299,-82.72531 -1.01177,-83.95625 -0.55647,-1.03978 -2.69397,-2.35768 -4.75,-2.92868 -5.07668,-1.40989 -95.40885,-1.40737 -100.48663,0.003 -7.09817,1.97127 -6.7516,-2.54059 -6.7516,87.89821 v 81.04966 h -15.5 -15.5 z m 268.92859,63.41282 c 3.04536,-1.62983 4.52844,-6.52063 3.05558,-10.07644 -0.69216,-1.67102 -2.06717,-3.47102 -3.05558,-4 -1.05297,-0.56353 -16.3937,-0.96178 -37.0484,-0.96178 -34.81701,0 -35.2798,0.0268 -37.56574,2.17431 -3.0531,2.86825 -3.11971,8.33963 -0.14014,11.51124 l 2.17432,2.31445 h 35.39143 c 20.74441,0 36.13517,-0.39804 37.18853,-0.96178 z m 33.1879,-0.93146 c 1.78126,-1.44238 2.33806,-2.89667 2.33806,-6.10676 0,-5.26312 -2.90546,-8 -8.49275,-8 -2.93211,0 -4.29697,0.61065 -5.88922,2.63486 -4.43977,5.64426 -1.03764,13.36514 5.88922,13.36514 2.25493,0 4.77333,-0.77468 6.15469,-1.89324 z m 15.58182,-31.608 c 2.66377,-1.86578 3.71468,-6.28233 2.34935,-9.8734 -1.19948,-3.15487 -6.25677,-5.62536 -11.51554,-5.62536 h -3.53212 v -38.4349 c 0,-23.0391 -0.39802,-39.48178 -0.99364,-41.04837 -2.08562,-5.4856 -3.48651,-5.61483 -57.47986,-5.3024 l -49.36704,0.28567 -2.57973,2.42431 -2.57973,2.42431 v 39.68579 39.68578 l -5.62205,0.58025 c -7.0517,0.7278 -10.37795,3.47119 -10.37795,8.55942 0,2.22877 0.79416,4.35658 2.17431,5.82569 l 2.17432,2.31445 h 67.60318 c 58.49811,0 67.89185,-0.20219 69.7465,-1.50124 z"
             style="fill:#0095db;fill-opacity:1;fill-rule:evenodd" />
          <path
             transform="scale(0.26458333)"
             inkscape:connector-curvature="0"
             id="path4289"
             d="m 404.73972,152.81969 v -39.5 h 15.92054 15.92055 l 0.56627,2.75 c 0.68075,3.30594 12.59264,74.91341 12.59264,75.69977 0,0.30262 -10.125,0.55023 -22.5,0.55023 h -22.5 z"
             style="fill:#0095db;fill-opacity:1;fill-rule:evenodd" />
          <path
             transform="scale(0.26458333)"
             inkscape:connector-curvature="0"
             id="path4291"
             d="m 418.23972,238.41984 c -4.94334,-2.29362 -9.89898,-7.40217 -11.94932,-12.31804 -0.8632,-2.06959 -1.55068,-6.61384 -1.55068,-10.25 v -6.53211 h 23.5 23.5 v 4.84106 c 0,10.86192 -4.79085,19.38085 -13.27775,23.61005 -6.28583,3.13236 -14.31466,3.39005 -20.22225,0.64904 z"
             style="fill:#0095db;fill-opacity:1;fill-rule:evenodd" />
          <path
             transform="scale(0.26458333)"
             inkscape:connector-curvature="0"
             id="path4293"
             d="m 548.17434,238.42927 c -9.98948,-4.5372 -15.43462,-12.62497 -15.43462,-22.92531 v -6.18427 h 26.13436 26.13437 l -0.48353,6.75797 c -0.54366,7.59841 -2.23173,11.5347 -6.98505,16.28803 -7.47097,7.47097 -20.39255,10.1391 -29.36553,6.06358 z"
             style="fill:#0095db;fill-opacity:1;fill-rule:evenodd" />
          <path
             transform="scale(0.26458333)"
             inkscape:connector-curvature="0"
             id="path4295"
             d="m 517.0667,152.81969 -13.15729,-39.5 15.66515,0.029 15.66516,0.029 21.25,38.8046 c 11.6875,21.34254 21.25,39.10448 21.25,39.47099 0,0.36651 -10.69104,0.66638 -23.75786,0.66638 H 530.224 Z"
             style="fill:#0095db;fill-opacity:1;fill-rule:evenodd" />
          <path
             transform="scale(0.26458333)"
             inkscape:connector-curvature="0"
             id="path4297"
             d="m 259.96194,90.653556 c 0.85775,-10.343315 -13.84331,-9.333871 135.93402,-9.333871 h 130.93467 l 2.45454,2.454546 c 1.95742,1.957411 2.45455,3.47643 2.45455,7.499999 v 5.045455 H 395.61589 259.49206 Z"
             style="fill:#0095db;fill-opacity:1;fill-rule:evenodd" />
          <path
             transform="scale(0.26458333)"
             inkscape:connector-curvature="0"
             id="path4299"
             d="m 279.98545,191.06969 c 0.25284,-0.6875 6.18846,-18.4625 13.19027,-39.5 l 12.73055,-38.25 h 15.99618 15.99618 l -0.56628,2.75 c -0.68075,3.30594 -12.59263,74.91341 -12.59263,75.69977 0,0.30262 -10.17315,0.55023 -22.60699,0.55023 -17.6641,0 -22.50648,-0.27331 -22.14728,-1.25 z"
             style="fill:#0095db;fill-opacity:1;fill-rule:evenodd" />
          <path
             transform="scale(0.26458333)"
             inkscape:connector-curvature="0"
             id="path4301"
             d="m 289.01747,237.7708 c -8.4869,-4.2292 -13.27775,-12.74813 -13.27775,-23.61005 v -4.84106 h 23.5 23.5 l -0.022,6.75 c -0.0258,7.91806 -2.12688,13.2254 -7.10593,17.94931 -7.18525,6.81706 -17.51798,8.27475 -26.59436,3.7518 z"
             style="fill:#0095db;fill-opacity:1;fill-rule:evenodd" />
          <path
             transform="scale(0.26458333)"
             inkscape:connector-curvature="0"
             id="path4303"
             d="m 222.20162,237.95409 c -9.579,-4.46057 -15.4619,-13.81165 -15.4619,-24.57723 v -4.05717 h 26 26 v 6.18427 c 0,4.20818 -0.66078,7.54926 -2.06793,10.45605 -5.978,12.34891 -21.84898,17.8713 -34.47017,11.99408 z"
             style="fill:#0095db;fill-opacity:1;fill-rule:evenodd" />
          <path
             transform="scale(0.26458333)"
             inkscape:connector-curvature="0"
             id="path4305"
             d="m 213.78752,191.56969 c 0.0263,-0.4125 9.60468,-18.075 21.2853,-39.25 l 21.2375,-38.5 15.83166,-0.27599 c 12.505,-0.218 15.73297,-0.008 15.36198,1 -0.25833,0.70179 -6.19844,18.48849 -13.20024,39.52599 l -12.73055,38.25 h -23.91673 c -13.1542,0 -23.89521,-0.3375 -23.86892,-0.75 z"
             style="fill:#0095db;fill-opacity:1;fill-rule:evenodd" />
          <path
             transform="scale(0.26458333)"
             inkscape:connector-curvature="0"
             id="path4307"
             d="m 354.23972,238.44085 c -8.44506,-3.87399 -13.11871,-11.1689 -14.13054,-22.05572 l -0.65666,-7.06544 h 24.28864 24.28863 l -0.57941,6.91119 c -0.90016,10.73712 -5.76072,18.33373 -14.21066,22.20997 -5.20111,2.38589 -13.7989,2.38589 -19,0 z"
             style="fill:#0095db;fill-opacity:1;fill-rule:evenodd" />
          <path
             transform="scale(0.26458333)"
             inkscape:connector-curvature="0"
             id="path4309"
             d="m 342.14708,189.56969 c 0.68075,-3.30595 12.59264,-74.91342 12.59264,-75.69978 0,-0.30262 7.425,-0.55022 16.5,-0.55022 h 16.5 v 39.5 39.5 h -23.07946 -23.07945 z"
             style="fill:#0095db;fill-opacity:1;fill-rule:evenodd" />
          <path
             transform="scale(0.26458333)"
             inkscape:connector-curvature="0"
             id="path4311"
             d="m 482.23972,238.41984 c -4.94334,-2.29362 -9.89898,-7.40217 -11.94932,-12.31804 -0.8632,-2.06959 -1.55068,-6.61384 -1.55068,-10.25 v -6.53211 h 23.5 23.5 v 5.37427 c 0,10.63833 -4.65761,18.78125 -13.16839,23.02234 -6.39846,3.18849 -14.3806,3.4647 -20.33161,0.70354 z"
             style="fill:#0095db;fill-opacity:1;fill-rule:evenodd" />
          <path
             transform="scale(0.26458333)"
             inkscape:connector-curvature="0"
             id="path4313"
             d="m 460.83152,154.56969 c -3.42714,-20.7625 -6.45872,-38.54881 -6.73684,-39.52514 -0.47173,-1.65593 0.58492,-1.75665 15.73576,-1.5 l 16.24145,0.27514 12.83391,38.4902 c 7.05866,21.16961 12.83392,38.83211 12.83392,39.25 0,0.41789 -10.05234,0.7598 -22.33852,0.7598 h -22.33853 z"
             style="fill:#0095db;fill-opacity:1;fill-rule:evenodd" />
          <path
             transform="scale(0.26458333)"
             inkscape:connector-curvature="0"
             id="path4315"
             d="m 213.8123,471.68483 c -2.06804,-2.62908 -2.07258,-2.8744 -2.07258,-111.83102 V 250.65765 l -2.60589,-1.39463 c -3.77715,-2.02147 -11.84162,-11.17058 -14.27249,-16.19209 -2.85876,-5.90541 -4.12162,-13.3156 -4.12162,-24.18472 v -9.1605 l 14.11072,-25.45301 c 7.76089,-13.99916 19.56358,-35.35301 26.22819,-47.45301 l 12.11747,-22 0.59346,-11.000005 c 0.45251,-8.387656 1.09358,-11.966143 2.69939,-15.068214 2.81824,-5.444236 9.23337,-11.080742 14.10419,-12.392316 2.74337,-0.738715 45.09014,-0.986616 137.30667,-0.803805 148.98967,0.295359 135.71263,-0.38626 143.22902,7.353122 4.76658,4.907987 6.61089,10.922421 6.61089,21.558568 v 8.79108 l 14.12581,25.78078 c 7.7692,14.17943 19.57483,35.45579 26.23474,47.28079 l 12.10892,21.5 0.35086,10.64157 c 0.57826,17.5385 -2.96513,27.22037 -13.47891,36.82936 -3.02643,2.76599 -5.91633,5.02907 -6.42201,5.02907 -0.55361,0 -0.91941,43.51236 -0.91941,109.36514 0,109.12757 -0.005,109.37087 -2.07258,112 l -2.07258,2.63486 H 395.73972 215.88488 Z m 46.16038,-94.83763 0.26704,-82.47249 2.27778,-2.27751 2.27777,-2.27751 h 50.94445 c 50.31259,0 50.97032,0.0259 53.03062,2.08618 2.07122,2.07122 2.0905,2.67873 2.68834,84.75 l 0.60216,82.66382 h 96.33944 96.33944 v -101.5 -101.5 h -6.84345 c -11.15861,0 -22.31868,-4.75867 -29.94337,-12.7679 l -3.28681,-3.45258 -5.46054,5.16436 c -3.0033,2.84039 -8.04923,6.3775 -11.21319,7.86023 -5.10298,2.39144 -6.93843,2.69589 -16.25264,2.69589 -9.47154,0 -11.05754,-0.27379 -16.19221,-2.79528 -3.13072,-1.53741 -7.97905,-4.85135 -10.77408,-7.36432 l -5.08187,-4.56904 -5.00785,4.68427 c -2.75432,2.57634 -7.58099,5.89028 -10.72592,7.36431 -5.06407,2.37353 -6.919,2.68006 -16.21807,2.68006 -9.47152,0 -11.05755,-0.2738 -16.19219,-2.79527 -3.13071,-1.53739 -7.97905,-4.85134 -10.77408,-7.36432 l -5.08189,-4.56905 -5.00785,4.68427 c -2.75432,2.57634 -7.58099,5.89028 -10.72592,7.36431 -5.06407,2.37353 -6.919,2.68006 -16.21807,2.68006 -9.22627,0 -11.16719,-0.31505 -16,-2.59715 -3.025,-1.42844 -7.8625,-4.73264 -10.75,-7.34267 l -5.25,-4.74552 -5.05781,4.5474 c -2.78179,2.50107 -7.61929,5.80528 -10.75,7.34267 -5.13464,2.52147 -6.72067,2.79527 -16.19219,2.79527 -9.31421,0 -11.14966,-0.30445 -16.25265,-2.69589 -3.16395,-1.48273 -8.11395,-4.92146 -11,-7.6416 l -5.24735,-4.94573 -5,4.44179 c -8.09864,7.19449 -16.35765,10.63784 -26.75,11.15263 l -8.75,0.43344 v 101.37768 101.37768 h 16.48296 16.48297 z m 95.76704,47.46115 V 389.297 l -40.25,0.26135 -40.25,0.26134 -0.26296,34.75 -0.26296,34.75 h 40.51296 40.51296 z m 0,-84.48866 v -34.5 h -40.5 -40.5 v 34.5 34.5 h 40.5 40.5 z M 244.26067,238.96204 c 10.32378,-4.80747 15.42068,-12.69124 15.45709,-23.90868 l 0.022,-6.76634 -26.75,0.26634 -26.75,0.26633 -0.31535,3.27672 c -0.51993,5.40242 1.7376,13.81588 4.86588,18.13434 7.39646,10.21052 22.07246,14.03898 33.47042,8.73129 z m 68.07197,-1.19409 c 2.99272,-1.85026 6.01478,-4.87772 7.88064,-7.89472 2.61035,-4.22079 3.07502,-6.0413 3.3798,-13.24157 l 0.35335,-8.348 -24.35335,0.26802 -24.35336,0.26801 0.13322,7.19306 c 0.16112,8.69876 2.806,14.88366 8.35809,19.54492 5.26659,4.42157 9.44407,5.75384 17.12804,5.46244 5.34089,-0.20255 7.5569,-0.83067 11.47357,-3.25216 z m 61.94795,1.18487 c 9.13815,-4.25528 13.28846,-11.17138 13.70086,-22.83123 l 0.25827,-7.3019 h -24.5 -24.5 l 0.25827,7.3019 c 0.14204,4.01605 0.86135,8.74105 1.59846,10.5 3.64658,8.70182 12.86636,14.67856 22.64327,14.67856 3.67295,0 7.17453,-0.77976 10.54087,-2.34733 z m 61.60069,1.20631 c 5.23813,-1.56938 11.21985,-6.88883 13.8454,-12.31251 1.3381,-2.76414 2.37993,-7.33883 2.73225,-11.99733 l 0.56947,-7.5296 h -24.64434 -24.64434 v 7.03212 c 0,11.36497 4.26143,18.92598 13.16838,23.3645 5.78477,2.88267 12.47046,3.39108 18.97318,1.44282 z m 64,0 c 5.04491,-1.51149 11.39159,-7.00401 13.99901,-12.11499 1.3362,-2.61916 2.26216,-6.84091 2.60841,-11.89255 l 0.53681,-7.8319 h -24.6429 -24.64289 v 7.03212 c 0,11.36497 4.26143,18.92598 13.16838,23.3645 5.78477,2.88267 12.47046,3.39108 18.97318,1.44282 z m 67.98631,-0.36734 c 10.45132,-3.56113 16.90894,-12.36519 17.66061,-24.07781 l 0.47453,-7.39429 h -27.1315 -27.13151 v 6.53212 c 0,7.84276 1.82912,12.64165 6.79883,17.83741 7.55975,7.90363 18.91067,10.65246 29.32904,7.10257 z m -292.3685,-86.23582 c 7.28234,-21.87005 13.24063,-40.09505 13.24063,-40.5 0,-0.40496 -7.37327,-0.73628 -16.38503,-0.73628 h -16.38503 l -20.98671,38.25 c -11.54269,21.0375 -21.51026,39.2625 -22.15016,40.5 l -1.16344,2.25 h 25.29455 25.29456 z m 56.08838,1.51372 c 3.47339,-21.0375 6.55236,-39.2625 6.84216,-40.5 l 0.52691,-2.25 H 321.93141 304.90628 L 291.823,151.56984 c -7.19581,21.58759 -13.08328,39.81259 -13.08328,40.50001 0,0.96397 5.32148,1.24984 23.26625,1.24984 h 23.26625 z m 56.91359,-2 -0.26134,-40.25 -17.08471,-0.27291 -17.08471,-0.2729 -6.26472,37.7729 c -3.44559,20.7751 -6.50122,39.01041 -6.79029,40.52291 l -0.52557,2.75 h 24.13634 24.13635 z m 62.23866,39.2035 c 0,-0.57557 -2.925,-18.55465 -6.5,-39.9535 -3.575,-21.39886 -6.5,-39.15293 -6.5,-39.45351 0,-0.30057 -7.65,-0.54649 -17,-0.54649 h -17 v 40.5 40.5 h 23.5 c 15.69612,0 23.5,-0.34752 23.5,-1.0465 z m 49.33485,-39.4535 -13.5045,-40.5 H 469.54649 452.5229 l 0.52691,2.25 c 0.2898,1.2375 3.36877,19.4625 6.84216,40.5 l 6.31525,38.25 h 23.68592 23.68593 z m 79.36055,39.25 c -0.28522,-0.6875 -10.19796,-18.8 -22.02831,-40.25 l -21.50972,-39 -16.57868,-0.27418 c -9.11828,-0.1508 -16.57869,-0.14431 -16.57869,0.0144 0,0.29772 25.62406,77.27922 26.46562,79.50976 0.36006,0.95434 6.41748,1.25 25.60998,1.25 19.72061,0 25.02661,-0.2694 24.6198,-1.25 z M 532.73972,91.742762 c 0,-4.830634 -0.39116,-5.968081 -2.92308,-8.5 l -2.92307,-2.923077 H 395.87241 264.85124 l -2.73104,2.349143 c -2.29191,1.971424 -2.80258,3.338141 -3.17595,8.5 l -0.44491,6.150857 h 137.12019 137.12019 z"
             style="fill:#000000;fill-opacity:0;fill-rule:evenodd" />
          <path
             transform="scale(0.26458333)"
             inkscape:connector-curvature="0"
             id="path4317"
             d="m 213.8123,471.68483 c -2.06804,-2.62908 -2.07258,-2.8744 -2.07258,-111.83102 V 250.65765 l -2.60589,-1.39463 c -3.77715,-2.02147 -11.84162,-11.17058 -14.27249,-16.19209 -2.85876,-5.90541 -4.12162,-13.3156 -4.12162,-24.18472 v -9.1605 l 14.11072,-25.45301 c 7.76089,-13.99916 19.56358,-35.35301 26.22819,-47.45301 l 12.11747,-22 0.59346,-11.000005 c 0.45251,-8.387656 1.09358,-11.966143 2.69939,-15.068214 2.81824,-5.444236 9.23337,-11.080742 14.10419,-12.392316 2.74337,-0.738715 45.09014,-0.986616 137.30667,-0.803805 148.98967,0.295359 135.71263,-0.38626 143.22902,7.353122 4.76658,4.907987 6.61089,10.922421 6.61089,21.558568 v 8.79108 l 14.12581,25.78078 c 7.7692,14.17943 19.57483,35.45579 26.23474,47.28079 l 12.10892,21.5 0.35086,10.64157 c 0.57826,17.5385 -2.96513,27.22037 -13.47891,36.82936 -3.02643,2.76599 -5.91633,5.02907 -6.42201,5.02907 -0.55361,0 -0.91941,43.51236 -0.91941,109.36514 0,109.12757 -0.005,109.37087 -2.07258,112 l -2.07258,2.63486 H 395.73972 215.88488 Z m 46.16038,-94.83763 0.26704,-82.47249 2.27778,-2.27751 2.27777,-2.27751 h 50.94445 c 50.31259,0 50.97032,0.0259 53.03062,2.08618 2.07122,2.07122 2.0905,2.67873 2.68834,84.75 l 0.60216,82.66382 h 96.33944 96.33944 v -101.5 -101.5 h -6.84345 c -11.15861,0 -22.31868,-4.75867 -29.94337,-12.7679 l -3.28681,-3.45258 -5.46054,5.16436 c -3.0033,2.84039 -8.04923,6.3775 -11.21319,7.86023 -5.10298,2.39144 -6.93843,2.69589 -16.25264,2.69589 -9.47154,0 -11.05754,-0.27379 -16.19221,-2.79528 -3.13072,-1.53741 -7.97905,-4.85135 -10.77408,-7.36432 l -5.08187,-4.56904 -5.00785,4.68427 c -2.75432,2.57634 -7.58099,5.89028 -10.72592,7.36431 -5.06407,2.37353 -6.919,2.68006 -16.21807,2.68006 -9.47152,0 -11.05755,-0.2738 -16.19219,-2.79527 -3.13071,-1.53739 -7.97905,-4.85134 -10.77408,-7.36432 l -5.08189,-4.56905 -5.00785,4.68427 c -2.75432,2.57634 -7.58099,5.89028 -10.72592,7.36431 -5.06407,2.37353 -6.919,2.68006 -16.21807,2.68006 -9.22627,0 -11.16719,-0.31505 -16,-2.59715 -3.025,-1.42844 -7.8625,-4.73264 -10.75,-7.34267 l -5.25,-4.74552 -5.05781,4.5474 c -2.78179,2.50107 -7.61929,5.80528 -10.75,7.34267 -5.13464,2.52147 -6.72067,2.79527 -16.19219,2.79527 -9.31421,0 -11.14966,-0.30445 -16.25265,-2.69589 -3.16395,-1.48273 -8.11395,-4.92146 -11,-7.6416 l -5.24735,-4.94573 -5,4.44179 c -8.09864,7.19449 -16.35765,10.63784 -26.75,11.15263 l -8.75,0.43344 v 101.37768 101.37768 h 16.48296 16.48297 z m 95.76704,47.46115 V 389.297 l -40.25,0.26135 -40.25,0.26134 -0.26296,34.75 -0.26296,34.75 h 40.51296 40.51296 z m 0,-84.48866 v -34.5 h -40.5 -40.5 v 34.5 34.5 h 40.5 40.5 z M 244.26067,238.96204 c 10.32378,-4.80747 15.42068,-12.69124 15.45709,-23.90868 l 0.022,-6.76634 -26.75,0.26634 -26.75,0.26633 -0.31535,3.27672 c -0.51993,5.40242 1.7376,13.81588 4.86588,18.13434 7.39646,10.21052 22.07246,14.03898 33.47042,8.73129 z m 68.07197,-1.19409 c 2.99272,-1.85026 6.01478,-4.87772 7.88064,-7.89472 2.61035,-4.22079 3.07502,-6.0413 3.3798,-13.24157 l 0.35335,-8.348 -24.35335,0.26802 -24.35336,0.26801 0.13322,7.19306 c 0.16112,8.69876 2.806,14.88366 8.35809,19.54492 5.26659,4.42157 9.44407,5.75384 17.12804,5.46244 5.34089,-0.20255 7.5569,-0.83067 11.47357,-3.25216 z m 61.94795,1.18487 c 9.13815,-4.25528 13.28846,-11.17138 13.70086,-22.83123 l 0.25827,-7.3019 h -24.5 -24.5 l 0.25827,7.3019 c 0.14204,4.01605 0.86135,8.74105 1.59846,10.5 3.64658,8.70182 12.86636,14.67856 22.64327,14.67856 3.67295,0 7.17453,-0.77976 10.54087,-2.34733 z m 61.60069,1.20631 c 5.23813,-1.56938 11.21985,-6.88883 13.8454,-12.31251 1.3381,-2.76414 2.37993,-7.33883 2.73225,-11.99733 l 0.56947,-7.5296 h -24.64434 -24.64434 v 7.03212 c 0,11.36497 4.26143,18.92598 13.16838,23.3645 5.78477,2.88267 12.47046,3.39108 18.97318,1.44282 z m 64,0 c 5.04491,-1.51149 11.39159,-7.00401 13.99901,-12.11499 1.3362,-2.61916 2.26216,-6.84091 2.60841,-11.89255 l 0.53681,-7.8319 h -24.6429 -24.64289 v 7.03212 c 0,11.36497 4.26143,18.92598 13.16838,23.3645 5.78477,2.88267 12.47046,3.39108 18.97318,1.44282 z m 67.98631,-0.36734 c 10.45132,-3.56113 16.90894,-12.36519 17.66061,-24.07781 l 0.47453,-7.39429 h -27.1315 -27.13151 v 6.53212 c 0,7.84276 1.82912,12.64165 6.79883,17.83741 7.55975,7.90363 18.91067,10.65246 29.32904,7.10257 z m -292.3685,-86.23582 c 7.28234,-21.87005 13.24063,-40.09505 13.24063,-40.5 0,-0.40496 -7.37327,-0.73628 -16.38503,-0.73628 h -16.38503 l -20.98671,38.25 c -11.54269,21.0375 -21.51026,39.2625 -22.15016,40.5 l -1.16344,2.25 h 25.29455 25.29456 z m 56.08838,1.51372 c 3.47339,-21.0375 6.55236,-39.2625 6.84216,-40.5 l 0.52691,-2.25 H 321.93141 304.90628 L 291.823,151.56984 c -7.19581,21.58759 -13.08328,39.81259 -13.08328,40.50001 0,0.96397 5.32148,1.24984 23.26625,1.24984 h 23.26625 z m 56.91359,-2 -0.26134,-40.25 -17.08471,-0.27291 -17.08471,-0.2729 -6.26472,37.7729 c -3.44559,20.7751 -6.50122,39.01041 -6.79029,40.52291 l -0.52557,2.75 h 24.13634 24.13635 z m 62.23866,39.2035 c 0,-0.57557 -2.925,-18.55465 -6.5,-39.9535 -3.575,-21.39886 -6.5,-39.15293 -6.5,-39.45351 0,-0.30057 -7.65,-0.54649 -17,-0.54649 h -17 v 40.5 40.5 h 23.5 c 15.69612,0 23.5,-0.34752 23.5,-1.0465 z m 49.33485,-39.4535 -13.5045,-40.5 H 469.54649 452.5229 l 0.52691,2.25 c 0.2898,1.2375 3.36877,19.4625 6.84216,40.5 l 6.31525,38.25 h 23.68592 23.68593 z m 79.36055,39.25 c -0.28522,-0.6875 -10.19796,-18.8 -22.02831,-40.25 l -21.50972,-39 -16.57868,-0.27418 c -9.11828,-0.1508 -16.57869,-0.14431 -16.57869,0.0144 0,0.29772 25.62406,77.27922 26.46562,79.50976 0.36006,0.95434 6.41748,1.25 25.60998,1.25 19.72061,0 25.02661,-0.2694 24.6198,-1.25 z M 532.73972,91.742762 c 0,-4.830634 -0.39116,-5.968081 -2.92308,-8.5 l -2.92307,-2.923077 H 395.87241 264.85124 l -2.73104,2.349143 c -2.29191,1.971424 -2.80258,3.338141 -3.17595,8.5 l -0.44491,6.150857 h 137.12019 137.12019 z"
             style="fill:#000000;fill-opacity:0;fill-rule:evenodd" />
          <path
             transform="scale(0.26458333)"
             inkscape:connector-curvature="0"
             id="path4319"
             d="m 213.8123,471.68483 c -2.06804,-2.62908 -2.07258,-2.8744 -2.07258,-111.83102 V 250.65765 l -2.60589,-1.39463 c -3.77715,-2.02147 -11.84162,-11.17058 -14.27249,-16.19209 -2.85876,-5.90541 -4.12162,-13.3156 -4.12162,-24.18472 v -9.1605 l 14.11072,-25.45301 c 7.76089,-13.99916 19.56358,-35.35301 26.22819,-47.45301 l 12.11747,-22 0.59346,-11.000005 c 0.45251,-8.387656 1.09358,-11.966143 2.69939,-15.068214 2.81824,-5.444236 9.23337,-11.080742 14.10419,-12.392316 2.74337,-0.738715 45.09014,-0.986616 137.30667,-0.803805 148.98967,0.295359 135.71263,-0.38626 143.22902,7.353122 4.76658,4.907987 6.61089,10.922421 6.61089,21.558568 v 8.79108 l 14.12581,25.78078 c 7.7692,14.17943 19.57483,35.45579 26.23474,47.28079 l 12.10892,21.5 0.35086,10.64157 c 0.57826,17.5385 -2.96513,27.22037 -13.47891,36.82936 -3.02643,2.76599 -5.91633,5.02907 -6.42201,5.02907 -0.55361,0 -0.91941,43.51236 -0.91941,109.36514 0,109.12757 -0.005,109.37087 -2.07258,112 l -2.07258,2.63486 H 395.73972 215.88488 Z m 46.16038,-94.83763 0.26704,-82.47249 2.27778,-2.27751 2.27777,-2.27751 h 50.94445 c 50.31259,0 50.97032,0.0259 53.03062,2.08618 2.07122,2.07122 2.0905,2.67873 2.68834,84.75 l 0.60216,82.66382 h 96.33944 96.33944 v -101.5 -101.5 h -6.84345 c -11.15861,0 -22.31868,-4.75867 -29.94337,-12.7679 l -3.28681,-3.45258 -5.46054,5.16436 c -3.0033,2.84039 -8.04923,6.3775 -11.21319,7.86023 -5.10298,2.39144 -6.93843,2.69589 -16.25264,2.69589 -9.47154,0 -11.05754,-0.27379 -16.19221,-2.79528 -3.13072,-1.53741 -7.97905,-4.85135 -10.77408,-7.36432 l -5.08187,-4.56904 -5.00785,4.68427 c -2.75432,2.57634 -7.58099,5.89028 -10.72592,7.36431 -5.06407,2.37353 -6.919,2.68006 -16.21807,2.68006 -9.47152,0 -11.05755,-0.2738 -16.19219,-2.79527 -3.13071,-1.53739 -7.97905,-4.85134 -10.77408,-7.36432 l -5.08189,-4.56905 -5.00785,4.68427 c -2.75432,2.57634 -7.58099,5.89028 -10.72592,7.36431 -5.06407,2.37353 -6.919,2.68006 -16.21807,2.68006 -9.22627,0 -11.16719,-0.31505 -16,-2.59715 -3.025,-1.42844 -7.8625,-4.73264 -10.75,-7.34267 l -5.25,-4.74552 -5.05781,4.5474 c -2.78179,2.50107 -7.61929,5.80528 -10.75,7.34267 -5.13464,2.52147 -6.72067,2.79527 -16.19219,2.79527 -9.31421,0 -11.14966,-0.30445 -16.25265,-2.69589 -3.16395,-1.48273 -8.11395,-4.92146 -11,-7.6416 l -5.24735,-4.94573 -5,4.44179 c -8.09864,7.19449 -16.35765,10.63784 -26.75,11.15263 l -8.75,0.43344 v 101.37768 101.37768 h 16.48296 16.48297 z m 95.76704,47.46115 V 389.297 l -40.25,0.26135 -40.25,0.26134 -0.26296,34.75 -0.26296,34.75 h 40.51296 40.51296 z m 0,-84.48866 v -34.5 h -40.5 -40.5 v 34.5 34.5 h 40.5 40.5 z M 244.26067,238.96204 c 10.32378,-4.80747 15.42068,-12.69124 15.45709,-23.90868 l 0.022,-6.76634 -26.75,0.26634 -26.75,0.26633 -0.31535,3.27672 c -0.51993,5.40242 1.7376,13.81588 4.86588,18.13434 7.39646,10.21052 22.07246,14.03898 33.47042,8.73129 z m 68.07197,-1.19409 c 2.99272,-1.85026 6.01478,-4.87772 7.88064,-7.89472 2.61035,-4.22079 3.07502,-6.0413 3.3798,-13.24157 l 0.35335,-8.348 -24.35335,0.26802 -24.35336,0.26801 0.13322,7.19306 c 0.16112,8.69876 2.806,14.88366 8.35809,19.54492 5.26659,4.42157 9.44407,5.75384 17.12804,5.46244 5.34089,-0.20255 7.5569,-0.83067 11.47357,-3.25216 z m 61.94795,1.18487 c 9.13815,-4.25528 13.28846,-11.17138 13.70086,-22.83123 l 0.25827,-7.3019 h -24.5 -24.5 l 0.25827,7.3019 c 0.14204,4.01605 0.86135,8.74105 1.59846,10.5 3.64658,8.70182 12.86636,14.67856 22.64327,14.67856 3.67295,0 7.17453,-0.77976 10.54087,-2.34733 z m 61.60069,1.20631 c 5.23813,-1.56938 11.21985,-6.88883 13.8454,-12.31251 1.3381,-2.76414 2.37993,-7.33883 2.73225,-11.99733 l 0.56947,-7.5296 h -24.64434 -24.64434 v 7.03212 c 0,11.36497 4.26143,18.92598 13.16838,23.3645 5.78477,2.88267 12.47046,3.39108 18.97318,1.44282 z m 64,0 c 5.04491,-1.51149 11.39159,-7.00401 13.99901,-12.11499 1.3362,-2.61916 2.26216,-6.84091 2.60841,-11.89255 l 0.53681,-7.8319 h -24.6429 -24.64289 v 7.03212 c 0,11.36497 4.26143,18.92598 13.16838,23.3645 5.78477,2.88267 12.47046,3.39108 18.97318,1.44282 z m 67.98631,-0.36734 c 10.45132,-3.56113 16.90894,-12.36519 17.66061,-24.07781 l 0.47453,-7.39429 h -27.1315 -27.13151 v 6.53212 c 0,7.84276 1.82912,12.64165 6.79883,17.83741 7.55975,7.90363 18.91067,10.65246 29.32904,7.10257 z m -292.3685,-86.23582 c 7.28234,-21.87005 13.24063,-40.09505 13.24063,-40.5 0,-0.40496 -7.37327,-0.73628 -16.38503,-0.73628 h -16.38503 l -20.98671,38.25 c -11.54269,21.0375 -21.51026,39.2625 -22.15016,40.5 l -1.16344,2.25 h 25.29455 25.29456 z m 56.08838,1.51372 c 3.47339,-21.0375 6.55236,-39.2625 6.84216,-40.5 l 0.52691,-2.25 H 321.93141 304.90628 L 291.823,151.56984 c -7.19581,21.58759 -13.08328,39.81259 -13.08328,40.50001 0,0.96397 5.32148,1.24984 23.26625,1.24984 h 23.26625 z m 56.91359,-2 -0.26134,-40.25 -17.08471,-0.27291 -17.08471,-0.2729 -6.26472,37.7729 c -3.44559,20.7751 -6.50122,39.01041 -6.79029,40.52291 l -0.52557,2.75 h 24.13634 24.13635 z m 62.23866,39.2035 c 0,-0.57557 -2.925,-18.55465 -6.5,-39.9535 -3.575,-21.39886 -6.5,-39.15293 -6.5,-39.45351 0,-0.30057 -7.65,-0.54649 -17,-0.54649 h -17 v 40.5 40.5 h 23.5 c 15.69612,0 23.5,-0.34752 23.5,-1.0465 z m 49.33485,-39.4535 -13.5045,-40.5 H 469.54649 452.5229 l 0.52691,2.25 c 0.2898,1.2375 3.36877,19.4625 6.84216,40.5 l 6.31525,38.25 h 23.68592 23.68593 z m 79.36055,39.25 c -0.28522,-0.6875 -10.19796,-18.8 -22.02831,-40.25 l -21.50972,-39 -16.57868,-0.27418 c -9.11828,-0.1508 -16.57869,-0.14431 -16.57869,0.0144 0,0.29772 25.62406,77.27922 26.46562,79.50976 0.36006,0.95434 6.41748,1.25 25.60998,1.25 19.72061,0 25.02661,-0.2694 24.6198,-1.25 z M 532.73972,91.742762 c 0,-4.830634 -0.39116,-5.968081 -2.92308,-8.5 l -2.92307,-2.923077 H 395.87241 264.85124 l -2.73104,2.349143 c -2.29191,1.971424 -2.80258,3.338141 -3.17595,8.5 l -0.44491,6.150857 h 137.12019 137.12019 z"
             style="fill:#000000;fill-opacity:0;fill-rule:evenodd" />
          <path
             transform="scale(0.26458333)"
             inkscape:connector-curvature="0"
             id="path4321"
             d="m 295.60255,239.61432 c -1.45045,-0.22314 -5.03761,-1.84321 -7.97147,-3.60017 -6.5324,-3.91195 -10.43022,-10.88229 -11.43258,-20.44446 l -0.65516,-6.25 h 23.7274 23.7274 l -0.71259,7.23167 c -0.39193,3.97742 -1.28848,8.60996 -1.99233,10.29453 -2.07076,4.95601 -9.92108,11.17244 -15.6644,12.40416 -2.74315,0.5883 -5.3029,1.00221 -5.68832,0.9198 -0.38543,-0.0824 -1.88751,-0.33239 -3.33795,-0.55553 z"
             style="fill:#ffffff;fill-opacity:0;fill-rule:evenodd" />
          <path
             transform="scale(0.26458333)"
             inkscape:connector-curvature="0"
             id="path4323"
             d="m 213.8123,471.68483 c -2.06804,-2.62908 -2.07258,-2.8744 -2.07258,-111.83102 V 250.65765 l -2.60589,-1.39463 c -3.77715,-2.02147 -11.84162,-11.17058 -14.27249,-16.19209 -2.85876,-5.90541 -4.12162,-13.3156 -4.12162,-24.18472 v -9.1605 l 14.11072,-25.45301 c 7.76089,-13.99916 19.56358,-35.35301 26.22819,-47.45301 l 12.11747,-22 0.59346,-11.000005 c 0.45251,-8.387656 1.09358,-11.966143 2.69939,-15.068214 2.81824,-5.444236 9.23337,-11.080742 14.10419,-12.392316 2.74337,-0.738715 45.09014,-0.986616 137.30667,-0.803805 148.98967,0.295359 135.71263,-0.38626 143.22902,7.353122 4.76658,4.907987 6.61089,10.922421 6.61089,21.558568 v 8.79108 l 14.12581,25.78078 c 7.7692,14.17943 19.57483,35.45579 26.23474,47.28079 l 12.10892,21.5 0.35086,10.64157 c 0.57826,17.5385 -2.96513,27.22037 -13.47891,36.82936 -3.02643,2.76599 -5.91633,5.02907 -6.42201,5.02907 -0.55361,0 -0.91941,43.51236 -0.91941,109.36514 0,109.12757 -0.005,109.37087 -2.07258,112 l -2.07258,2.63486 H 395.73972 215.88488 Z m 46.16038,-94.83763 0.26704,-82.47249 2.27778,-2.27751 2.27777,-2.27751 h 50.94445 c 50.31259,0 50.97032,0.0259 53.03062,2.08618 2.07122,2.07122 2.0905,2.67873 2.68834,84.75 l 0.60216,82.66382 h 96.33944 96.33944 v -101.5 -101.5 h -6.84345 c -11.15861,0 -22.31868,-4.75867 -29.94337,-12.7679 l -3.28681,-3.45258 -5.46054,5.16436 c -3.0033,2.84039 -8.04923,6.3775 -11.21319,7.86023 -5.10298,2.39144 -6.93843,2.69589 -16.25264,2.69589 -9.47154,0 -11.05754,-0.27379 -16.19221,-2.79528 -3.13072,-1.53741 -7.97905,-4.85135 -10.77408,-7.36432 l -5.08187,-4.56904 -5.00785,4.68427 c -2.75432,2.57634 -7.58099,5.89028 -10.72592,7.36431 -5.06407,2.37353 -6.919,2.68006 -16.21807,2.68006 -9.47152,0 -11.05755,-0.2738 -16.19219,-2.79527 -3.13071,-1.53739 -7.97905,-4.85134 -10.77408,-7.36432 l -5.08189,-4.56905 -5.00785,4.68427 c -2.75432,2.57634 -7.58099,5.89028 -10.72592,7.36431 -5.06407,2.37353 -6.919,2.68006 -16.21807,2.68006 -9.22627,0 -11.16719,-0.31505 -16,-2.59715 -3.025,-1.42844 -7.8625,-4.73264 -10.75,-7.34267 l -5.25,-4.74552 -5.05781,4.5474 c -2.78179,2.50107 -7.61929,5.80528 -10.75,7.34267 -5.13464,2.52147 -6.72067,2.79527 -16.19219,2.79527 -9.31421,0 -11.14966,-0.30445 -16.25265,-2.69589 -3.16395,-1.48273 -8.11395,-4.92146 -11,-7.6416 l -5.24735,-4.94573 -5,4.44179 c -8.09864,7.19449 -16.35765,10.63784 -26.75,11.15263 l -8.75,0.43344 v 101.37768 101.37768 h 16.48296 16.48297 z m 95.76704,47.46115 V 389.297 l -40.25,0.26135 -40.25,0.26134 -0.26296,34.75 -0.26296,34.75 h 40.51296 40.51296 z m 0,-84.48866 v -34.5 h -40.5 -40.5 v 34.5 34.5 h 40.5 40.5 z M 244.26067,238.96204 c 10.32378,-4.80747 15.42068,-12.69124 15.45709,-23.90868 l 0.022,-6.76634 -26.75,0.26634 -26.75,0.26633 -0.31535,3.27672 c -0.51993,5.40242 1.7376,13.81588 4.86588,18.13434 7.39646,10.21052 22.07246,14.03898 33.47042,8.73129 z m 68.07197,-1.19409 c 2.99272,-1.85026 6.01478,-4.87772 7.88064,-7.89472 2.61035,-4.22079 3.07502,-6.0413 3.3798,-13.24157 l 0.35335,-8.348 -24.35335,0.26802 -24.35336,0.26801 0.13322,7.19306 c 0.16112,8.69876 2.806,14.88366 8.35809,19.54492 5.26659,4.42157 9.44407,5.75384 17.12804,5.46244 5.34089,-0.20255 7.5569,-0.83067 11.47357,-3.25216 z m 61.94795,1.18487 c 9.13815,-4.25528 13.28846,-11.17138 13.70086,-22.83123 l 0.25827,-7.3019 h -24.5 -24.5 l 0.25827,7.3019 c 0.14204,4.01605 0.86135,8.74105 1.59846,10.5 3.64658,8.70182 12.86636,14.67856 22.64327,14.67856 3.67295,0 7.17453,-0.77976 10.54087,-2.34733 z m 61.60069,1.20631 c 5.23813,-1.56938 11.21985,-6.88883 13.8454,-12.31251 1.3381,-2.76414 2.37993,-7.33883 2.73225,-11.99733 l 0.56947,-7.5296 h -24.64434 -24.64434 v 7.03212 c 0,11.36497 4.26143,18.92598 13.16838,23.3645 5.78477,2.88267 12.47046,3.39108 18.97318,1.44282 z m 64,0 c 5.04491,-1.51149 11.39159,-7.00401 13.99901,-12.11499 1.3362,-2.61916 2.26216,-6.84091 2.60841,-11.89255 l 0.53681,-7.8319 h -24.6429 -24.64289 v 7.03212 c 0,11.36497 4.26143,18.92598 13.16838,23.3645 5.78477,2.88267 12.47046,3.39108 18.97318,1.44282 z m 67.98631,-0.36734 c 10.45132,-3.56113 16.90894,-12.36519 17.66061,-24.07781 l 0.47453,-7.39429 h -27.1315 -27.13151 v 6.53212 c 0,7.84276 1.82912,12.64165 6.79883,17.83741 7.55975,7.90363 18.91067,10.65246 29.32904,7.10257 z m -292.3685,-86.23582 c 7.28234,-21.87005 13.24063,-40.09505 13.24063,-40.5 0,-0.40496 -7.37327,-0.73628 -16.38503,-0.73628 h -16.38503 l -20.98671,38.25 c -11.54269,21.0375 -21.51026,39.2625 -22.15016,40.5 l -1.16344,2.25 h 25.29455 25.29456 z m 56.08838,1.51372 c 3.47339,-21.0375 6.55236,-39.2625 6.84216,-40.5 l 0.52691,-2.25 H 321.93141 304.90628 L 291.823,151.56984 c -7.19581,21.58759 -13.08328,39.81259 -13.08328,40.50001 0,0.96397 5.32148,1.24984 23.26625,1.24984 h 23.26625 z m 56.91359,-2 -0.26134,-40.25 -17.08471,-0.27291 -17.08471,-0.2729 -6.26472,37.7729 c -3.44559,20.7751 -6.50122,39.01041 -6.79029,40.52291 l -0.52557,2.75 h 24.13634 24.13635 z m 62.23866,39.2035 c 0,-0.57557 -2.925,-18.55465 -6.5,-39.9535 -3.575,-21.39886 -6.5,-39.15293 -6.5,-39.45351 0,-0.30057 -7.65,-0.54649 -17,-0.54649 h -17 v 40.5 40.5 h 23.5 c 15.69612,0 23.5,-0.34752 23.5,-1.0465 z m 49.33485,-39.4535 -13.5045,-40.5 H 469.54649 452.5229 l 0.52691,2.25 c 0.2898,1.2375 3.36877,19.4625 6.84216,40.5 l 6.31525,38.25 h 23.68592 23.68593 z m 79.36055,39.25 c -0.28522,-0.6875 -10.19796,-18.8 -22.02831,-40.25 l -21.50972,-39 -16.57868,-0.27418 c -9.11828,-0.1508 -16.57869,-0.14431 -16.57869,0.0144 0,0.29772 25.62406,77.27922 26.46562,79.50976 0.36006,0.95434 6.41748,1.25 25.60998,1.25 19.72061,0 25.02661,-0.2694 24.6198,-1.25 z M 532.73972,91.742762 c 0,-4.830634 -0.39116,-5.968081 -2.92308,-8.5 l -2.92307,-2.923077 H 395.87241 264.85124 l -2.73104,2.349143 c -2.29191,1.971424 -2.80258,3.338141 -3.17595,8.5 l -0.44491,6.150857 h 137.12019 137.12019 z"
             style="fill:#ffffff;fill-opacity:0;fill-rule:evenodd" />
          <path
             transform="scale(0.26458333)"
             inkscape:connector-curvature="0"
             id="path4325"
             d="m 213.8123,471.68483 c -2.06804,-2.62908 -2.07258,-2.8744 -2.07258,-111.83102 V 250.65765 l -2.60589,-1.39463 c -3.77715,-2.02147 -11.84162,-11.17058 -14.27249,-16.19209 -2.85876,-5.90541 -4.12162,-13.3156 -4.12162,-24.18472 v -9.1605 l 14.11072,-25.45301 c 7.76089,-13.99916 19.56358,-35.35301 26.22819,-47.45301 l 12.11747,-22 0.59346,-11.000005 c 0.45251,-8.387656 1.09358,-11.966143 2.69939,-15.068214 2.81824,-5.444236 9.23337,-11.080742 14.10419,-12.392316 2.74337,-0.738715 45.09014,-0.986616 137.30667,-0.803805 148.98967,0.295359 135.71263,-0.38626 143.22902,7.353122 4.76658,4.907987 6.61089,10.922421 6.61089,21.558568 v 8.79108 l 14.12581,25.78078 c 7.7692,14.17943 19.57483,35.45579 26.23474,47.28079 l 12.10892,21.5 0.35086,10.64157 c 0.57826,17.5385 -2.96513,27.22037 -13.47891,36.82936 -3.02643,2.76599 -5.91633,5.02907 -6.42201,5.02907 -0.55361,0 -0.91941,43.51236 -0.91941,109.36514 0,109.12757 -0.005,109.37087 -2.07258,112 l -2.07258,2.63486 H 395.73972 215.88488 Z m 46.16038,-94.83763 0.26704,-82.47249 2.27778,-2.27751 2.27777,-2.27751 h 50.94445 c 50.31259,0 50.97032,0.0259 53.03062,2.08618 2.07122,2.07122 2.0905,2.67873 2.68834,84.75 l 0.60216,82.66382 h 96.33944 96.33944 v -101.5 -101.5 h -6.84345 c -11.15861,0 -22.31868,-4.75867 -29.94337,-12.7679 l -3.28681,-3.45258 -5.46054,5.16436 c -3.0033,2.84039 -8.04923,6.3775 -11.21319,7.86023 -5.10298,2.39144 -6.93843,2.69589 -16.25264,2.69589 -9.47154,0 -11.05754,-0.27379 -16.19221,-2.79528 -3.13072,-1.53741 -7.97905,-4.85135 -10.77408,-7.36432 l -5.08187,-4.56904 -5.00785,4.68427 c -2.75432,2.57634 -7.58099,5.89028 -10.72592,7.36431 -5.06407,2.37353 -6.919,2.68006 -16.21807,2.68006 -9.47152,0 -11.05755,-0.2738 -16.19219,-2.79527 -3.13071,-1.53739 -7.97905,-4.85134 -10.77408,-7.36432 l -5.08189,-4.56905 -5.00785,4.68427 c -2.75432,2.57634 -7.58099,5.89028 -10.72592,7.36431 -5.06407,2.37353 -6.919,2.68006 -16.21807,2.68006 -9.22627,0 -11.16719,-0.31505 -16,-2.59715 -3.025,-1.42844 -7.8625,-4.73264 -10.75,-7.34267 l -5.25,-4.74552 -5.05781,4.5474 c -2.78179,2.50107 -7.61929,5.80528 -10.75,7.34267 -5.13464,2.52147 -6.72067,2.79527 -16.19219,2.79527 -9.31421,0 -11.14966,-0.30445 -16.25265,-2.69589 -3.16395,-1.48273 -8.11395,-4.92146 -11,-7.6416 l -5.24735,-4.94573 -5,4.44179 c -8.09864,7.19449 -16.35765,10.63784 -26.75,11.15263 l -8.75,0.43344 v 101.37768 101.37768 h 16.48296 16.48297 z m 95.76704,47.46115 V 389.297 l -40.25,0.26135 -40.25,0.26134 -0.26296,34.75 -0.26296,34.75 h 40.51296 40.51296 z m 0,-84.48866 v -34.5 h -40.5 -40.5 v 34.5 34.5 h 40.5 40.5 z M 244.26067,238.96204 c 10.32378,-4.80747 15.42068,-12.69124 15.45709,-23.90868 l 0.022,-6.76634 -26.75,0.26634 -26.75,0.26633 -0.31535,3.27672 c -0.51993,5.40242 1.7376,13.81588 4.86588,18.13434 7.39646,10.21052 22.07246,14.03898 33.47042,8.73129 z m 68.07197,-1.19409 c 2.99272,-1.85026 6.01478,-4.87772 7.88064,-7.89472 2.61035,-4.22079 3.07502,-6.0413 3.3798,-13.24157 l 0.35335,-8.348 -24.35335,0.26802 -24.35336,0.26801 0.13322,7.19306 c 0.16112,8.69876 2.806,14.88366 8.35809,19.54492 5.26659,4.42157 9.44407,5.75384 17.12804,5.46244 5.34089,-0.20255 7.5569,-0.83067 11.47357,-3.25216 z m 61.94795,1.18487 c 9.13815,-4.25528 13.28846,-11.17138 13.70086,-22.83123 l 0.25827,-7.3019 h -24.5 -24.5 l 0.25827,7.3019 c 0.14204,4.01605 0.86135,8.74105 1.59846,10.5 3.64658,8.70182 12.86636,14.67856 22.64327,14.67856 3.67295,0 7.17453,-0.77976 10.54087,-2.34733 z m 61.60069,1.20631 c 5.23813,-1.56938 11.21985,-6.88883 13.8454,-12.31251 1.3381,-2.76414 2.37993,-7.33883 2.73225,-11.99733 l 0.56947,-7.5296 h -24.64434 -24.64434 v 7.03212 c 0,11.36497 4.26143,18.92598 13.16838,23.3645 5.78477,2.88267 12.47046,3.39108 18.97318,1.44282 z m 64,0 c 5.04491,-1.51149 11.39159,-7.00401 13.99901,-12.11499 1.3362,-2.61916 2.26216,-6.84091 2.60841,-11.89255 l 0.53681,-7.8319 h -24.6429 -24.64289 v 7.03212 c 0,11.36497 4.26143,18.92598 13.16838,23.3645 5.78477,2.88267 12.47046,3.39108 18.97318,1.44282 z m 67.98631,-0.36734 c 10.45132,-3.56113 16.90894,-12.36519 17.66061,-24.07781 l 0.47453,-7.39429 h -27.1315 -27.13151 v 6.53212 c 0,7.84276 1.82912,12.64165 6.79883,17.83741 7.55975,7.90363 18.91067,10.65246 29.32904,7.10257 z m -292.3685,-86.23582 c 7.28234,-21.87005 13.24063,-40.09505 13.24063,-40.5 0,-0.40496 -7.37327,-0.73628 -16.38503,-0.73628 h -16.38503 l -20.98671,38.25 c -11.54269,21.0375 -21.51026,39.2625 -22.15016,40.5 l -1.16344,2.25 h 25.29455 25.29456 z m 56.08838,1.51372 c 3.47339,-21.0375 6.55236,-39.2625 6.84216,-40.5 l 0.52691,-2.25 H 321.93141 304.90628 L 291.823,151.56984 c -7.19581,21.58759 -13.08328,39.81259 -13.08328,40.50001 0,0.96397 5.32148,1.24984 23.26625,1.24984 h 23.26625 z m 56.91359,-2 -0.26134,-40.25 -17.08471,-0.27291 -17.08471,-0.2729 -6.26472,37.7729 c -3.44559,20.7751 -6.50122,39.01041 -6.79029,40.52291 l -0.52557,2.75 h 24.13634 24.13635 z m 62.23866,39.2035 c 0,-0.57557 -2.925,-18.55465 -6.5,-39.9535 -3.575,-21.39886 -6.5,-39.15293 -6.5,-39.45351 0,-0.30057 -7.65,-0.54649 -17,-0.54649 h -17 v 40.5 40.5 h 23.5 c 15.69612,0 23.5,-0.34752 23.5,-1.0465 z m 49.33485,-39.4535 -13.5045,-40.5 H 469.54649 452.5229 l 0.52691,2.25 c 0.2898,1.2375 3.36877,19.4625 6.84216,40.5 l 6.31525,38.25 h 23.68592 23.68593 z m 79.36055,39.25 c -0.28522,-0.6875 -10.19796,-18.8 -22.02831,-40.25 l -21.50972,-39 -16.57868,-0.27418 c -9.11828,-0.1508 -16.57869,-0.14431 -16.57869,0.0144 0,0.29772 25.62406,77.27922 26.46562,79.50976 0.36006,0.95434 6.41748,1.25 25.60998,1.25 19.72061,0 25.02661,-0.2694 24.6198,-1.25 z M 532.73972,91.742762 c 0,-4.830634 -0.39116,-5.968081 -2.92308,-8.5 l -2.92307,-2.923077 H 395.87241 264.85124 l -2.73104,2.349143 c -2.29191,1.971424 -2.80258,3.338141 -3.17595,8.5 l -0.44491,6.150857 h 137.12019 137.12019 z"
             style="fill:#ffffff;fill-opacity:0;fill-rule:evenodd" />
          <path
             transform="scale(0.26458333)"
             inkscape:connector-curvature="0"
             id="path4327"
             d="m 213.8123,471.68483 c -2.06804,-2.62908 -2.07258,-2.8744 -2.07258,-111.83102 V 250.65765 l -2.60589,-1.39463 c -3.77715,-2.02147 -11.84162,-11.17058 -14.27249,-16.19209 -2.85876,-5.90541 -4.12162,-13.3156 -4.12162,-24.18472 v -9.1605 l 14.11072,-25.45301 c 7.76089,-13.99916 19.56358,-35.35301 26.22819,-47.45301 l 12.11747,-22 0.59346,-11.000005 c 0.45251,-8.387656 1.09358,-11.966143 2.69939,-15.068214 2.81824,-5.444236 9.23337,-11.080742 14.10419,-12.392316 2.74337,-0.738715 45.09014,-0.986616 137.30667,-0.803805 148.98967,0.295359 135.71263,-0.38626 143.22902,7.353122 4.76658,4.907987 6.61089,10.922421 6.61089,21.558568 v 8.79108 l 14.12581,25.78078 c 7.7692,14.17943 19.57483,35.45579 26.23474,47.28079 l 12.10892,21.5 0.35086,10.64157 c 0.57826,17.5385 -2.96513,27.22037 -13.47891,36.82936 -3.02643,2.76599 -5.91633,5.02907 -6.42201,5.02907 -0.55361,0 -0.91941,43.51236 -0.91941,109.36514 0,109.12757 -0.005,109.37087 -2.07258,112 l -2.07258,2.63486 H 395.73972 215.88488 Z m 46.16038,-94.83763 0.26704,-82.47249 2.27778,-2.27751 2.27777,-2.27751 h 50.94445 c 50.31259,0 50.97032,0.0259 53.03062,2.08618 2.07122,2.07122 2.0905,2.67873 2.68834,84.75 l 0.60216,82.66382 h 96.33944 96.33944 v -101.5 -101.5 h -6.84345 c -11.15861,0 -22.31868,-4.75867 -29.94337,-12.7679 l -3.28681,-3.45258 -5.46054,5.16436 c -3.0033,2.84039 -8.04923,6.3775 -11.21319,7.86023 -5.10298,2.39144 -6.93843,2.69589 -16.25264,2.69589 -9.47154,0 -11.05754,-0.27379 -16.19221,-2.79528 -3.13072,-1.53741 -7.97905,-4.85135 -10.77408,-7.36432 l -5.08187,-4.56904 -5.00785,4.68427 c -2.75432,2.57634 -7.58099,5.89028 -10.72592,7.36431 -5.06407,2.37353 -6.919,2.68006 -16.21807,2.68006 -9.47152,0 -11.05755,-0.2738 -16.19219,-2.79527 -3.13071,-1.53739 -7.97905,-4.85134 -10.77408,-7.36432 l -5.08189,-4.56905 -5.00785,4.68427 c -2.75432,2.57634 -7.58099,5.89028 -10.72592,7.36431 -5.06407,2.37353 -6.919,2.68006 -16.21807,2.68006 -9.22627,0 -11.16719,-0.31505 -16,-2.59715 -3.025,-1.42844 -7.8625,-4.73264 -10.75,-7.34267 l -5.25,-4.74552 -5.05781,4.5474 c -2.78179,2.50107 -7.61929,5.80528 -10.75,7.34267 -5.13464,2.52147 -6.72067,2.79527 -16.19219,2.79527 -9.31421,0 -11.14966,-0.30445 -16.25265,-2.69589 -3.16395,-1.48273 -8.11395,-4.92146 -11,-7.6416 l -5.24735,-4.94573 -5,4.44179 c -8.09864,7.19449 -16.35765,10.63784 -26.75,11.15263 l -8.75,0.43344 v 101.37768 101.37768 h 16.48296 16.48297 z m 95.76704,47.46115 V 389.297 l -40.25,0.26135 -40.25,0.26134 -0.26296,34.75 -0.26296,34.75 h 40.51296 40.51296 z m 0,-84.48866 v -34.5 h -40.5 -40.5 v 34.5 34.5 h 40.5 40.5 z M 244.26067,238.96204 c 10.32378,-4.80747 15.42068,-12.69124 15.45709,-23.90868 l 0.022,-6.76634 -26.75,0.26634 -26.75,0.26633 -0.31535,3.27672 c -0.51993,5.40242 1.7376,13.81588 4.86588,18.13434 7.39646,10.21052 22.07246,14.03898 33.47042,8.73129 z m 68.07197,-1.19409 c 2.99272,-1.85026 6.01478,-4.87772 7.88064,-7.89472 2.61035,-4.22079 3.07502,-6.0413 3.3798,-13.24157 l 0.35335,-8.348 -24.35335,0.26802 -24.35336,0.26801 0.13322,7.19306 c 0.16112,8.69876 2.806,14.88366 8.35809,19.54492 5.26659,4.42157 9.44407,5.75384 17.12804,5.46244 5.34089,-0.20255 7.5569,-0.83067 11.47357,-3.25216 z m 61.94795,1.18487 c 9.13815,-4.25528 13.28846,-11.17138 13.70086,-22.83123 l 0.25827,-7.3019 h -24.5 -24.5 l 0.25827,7.3019 c 0.14204,4.01605 0.86135,8.74105 1.59846,10.5 3.64658,8.70182 12.86636,14.67856 22.64327,14.67856 3.67295,0 7.17453,-0.77976 10.54087,-2.34733 z m 61.60069,1.20631 c 5.23813,-1.56938 11.21985,-6.88883 13.8454,-12.31251 1.3381,-2.76414 2.37993,-7.33883 2.73225,-11.99733 l 0.56947,-7.5296 h -24.64434 -24.64434 v 7.03212 c 0,11.36497 4.26143,18.92598 13.16838,23.3645 5.78477,2.88267 12.47046,3.39108 18.97318,1.44282 z m 64,0 c 5.04491,-1.51149 11.39159,-7.00401 13.99901,-12.11499 1.3362,-2.61916 2.26216,-6.84091 2.60841,-11.89255 l 0.53681,-7.8319 h -24.6429 -24.64289 v 7.03212 c 0,11.36497 4.26143,18.92598 13.16838,23.3645 5.78477,2.88267 12.47046,3.39108 18.97318,1.44282 z m 67.98631,-0.36734 c 10.45132,-3.56113 16.90894,-12.36519 17.66061,-24.07781 l 0.47453,-7.39429 h -27.1315 -27.13151 v 6.53212 c 0,7.84276 1.82912,12.64165 6.79883,17.83741 7.55975,7.90363 18.91067,10.65246 29.32904,7.10257 z m -292.3685,-86.23582 c 7.28234,-21.87005 13.24063,-40.09505 13.24063,-40.5 0,-0.40496 -7.37327,-0.73628 -16.38503,-0.73628 h -16.38503 l -20.98671,38.25 c -11.54269,21.0375 -21.51026,39.2625 -22.15016,40.5 l -1.16344,2.25 h 25.29455 25.29456 z m 56.08838,1.51372 c 3.47339,-21.0375 6.55236,-39.2625 6.84216,-40.5 l 0.52691,-2.25 H 321.93141 304.90628 L 291.823,151.56984 c -7.19581,21.58759 -13.08328,39.81259 -13.08328,40.50001 0,0.96397 5.32148,1.24984 23.26625,1.24984 h 23.26625 z m 56.91359,-2 -0.26134,-40.25 -17.08471,-0.27291 -17.08471,-0.2729 -6.26472,37.7729 c -3.44559,20.7751 -6.50122,39.01041 -6.79029,40.52291 l -0.52557,2.75 h 24.13634 24.13635 z m 62.23866,39.2035 c 0,-0.57557 -2.925,-18.55465 -6.5,-39.9535 -3.575,-21.39886 -6.5,-39.15293 -6.5,-39.45351 0,-0.30057 -7.65,-0.54649 -17,-0.54649 h -17 v 40.5 40.5 h 23.5 c 15.69612,0 23.5,-0.34752 23.5,-1.0465 z m 49.33485,-39.4535 -13.5045,-40.5 H 469.54649 452.5229 l 0.52691,2.25 c 0.2898,1.2375 3.36877,19.4625 6.84216,40.5 l 6.31525,38.25 h 23.68592 23.68593 z m 79.36055,39.25 c -0.28522,-0.6875 -10.19796,-18.8 -22.02831,-40.25 l -21.50972,-39 -16.57868,-0.27418 c -9.11828,-0.1508 -16.57869,-0.14431 -16.57869,0.0144 0,0.29772 25.62406,77.27922 26.46562,79.50976 0.36006,0.95434 6.41748,1.25 25.60998,1.25 19.72061,0 25.02661,-0.2694 24.6198,-1.25 z M 532.73972,91.742762 c 0,-4.830634 -0.39116,-5.968081 -2.92308,-8.5 l -2.92307,-2.923077 H 395.87241 264.85124 l -2.73104,2.349143 c -2.29191,1.971424 -2.80258,3.338141 -3.17595,8.5 l -0.44491,6.150857 h 137.12019 137.12019 z"
             style="fill:#ffffff;fill-opacity:0;fill-rule:evenodd" />
          <path
             style="fill:#0095db;fill-opacity:1;fill-rule:evenodd;stroke:#ffffff;stroke-width:0.30285713;stroke-miterlimit:4;stroke-dasharray:none;stroke-opacity:1"
             d="M 103.62952,272.99501 C 100.49791,272.16152 81.61912,247.33669 72.635111,232.23866 61.03224,212.73953 56.049009,197.44133 57.063993,184.43632 c 2.562744,-32.83645 36.908518,-53.46166 67.028837,-40.25191 5.39728,2.36706 10.02191,5.5933 14.57052,10.16471 8.37391,8.41588 12.77151,17.75429 13.97938,29.68556 0.43666,4.31331 0.3135,6.83135 -0.60489,12.36667 -2.83321,17.07648 -16.67741,42.02921 -37.60344,67.7763 -7.04831,8.67215 -8.1064,9.53559 -10.80488,8.81736 z m 9.2519,-61.62756 c 10.25801,-3.67926 16.82826,-13.58615 16.22853,-24.47 -0.34769,-6.30984 -2.61015,-11.35087 -7.11714,-15.85786 -2.90433,-2.90434 -5.61681,-4.61537 -9.47874,-5.9792 -3.91919,-1.38405 -10.51011,-1.4596 -14.678675,-0.16825 -9.874832,3.05907 -16.688471,11.78916 -17.268242,22.12524 -0.482494,8.60184 3.615848,16.7934 10.787197,21.56091 4.792969,3.18636 7.812778,4.02175 14.04057,3.88414 3.97333,-0.0878 5.16392,-0.26194 7.4865,-1.09498 z"
             id="path1830"
             inkscape:connector-curvature="0" />
        </g>
      </g>
    </g>
  </g>
</svg>
