<svg xmlns="http://www.w3.org/2000/svg" xmlns:xlink="http://www.w3.org/1999/xlink" version="1.1" width="510" height="510" style="" xml:space="preserve"><rect id="backgroundrect" width="100%" height="100%" x="0" y="0" fill="none" stroke="none"/>
















<g class="currentLayer" style=""><title>Layer 1</title><g id="svg_1" class="selected" fill="#ffffff" fill-opacity="1">
	<g id="book" fill="#ffffff" fill-opacity="1">
		<path d="M408,510c28.05,0,51-22.95,51-51V51c0-28.05-22.95-51-51-51H255v178.5l-63.75-38.25L127.5,178.5V0H102    C73.95,0,51,22.95,51,51v408c0,28.05,22.95,51,51,51H408z" id="svg_2" fill="#ffffff" fill-opacity="1"/>
	</g>
</g><g id="svg_3">
</g><g id="svg_4">
</g><g id="svg_5">
</g><g id="svg_6">
</g><g id="svg_7">
</g><g id="svg_8">
</g><g id="svg_9">
</g><g id="svg_10">
</g><g id="svg_11">
</g><g id="svg_12">
</g><g id="svg_13">
</g><g id="svg_14">
</g><g id="svg_15">
</g><g id="svg_16">
</g><g id="svg_17">
</g><path fill="none" stroke="#000000" stroke-dashoffset="" fill-rule="nonzero" marker-start="" marker-mid="" marker-end="" id="svg_21" d="M184.6882781285421,123.08347544031744 L185.1833258202662,122.21714197980022 L185.67837351199034,123.08347544031744 L184.6882781285421,123.08347544031744 z" style="color: rgb(0, 0, 0);" class="" transform="rotate(-143.92320251464844 185.18331909179688,122.65030670166016) "/><path fill="#242424" fill-opacity="1" stroke="none" stroke-opacity="1" stroke-width="1" stroke-dasharray="none" stroke-linejoin="miter" stroke-linecap="butt" stroke-dashoffset="" fill-rule="nonzero" opacity="1" marker-start="" marker-mid="" marker-end="" id="svg_18" d="M128.67327518910017,19.76238307161975 " style="color: rgb(0, 0, 0);"/></g></svg>